/home/vojtech/workspace/java/test/morosystems/integration-task/src/main/java/cz/morosystems/schlemmer/rest/DeleteUserRestController.java
/home/vojtech/workspace/java/test/morosystems/integration-task/src/main/java/cz/morosystems/schlemmer/rest/UserRestController.java
/home/vojtech/workspace/java/test/morosystems/integration-task/src/main/java/cz/morosystems/schlemmer/repository/IUserRepository.java
/home/vojtech/workspace/java/test/morosystems/integration-task/src/main/java/cz/morosystems/schlemmer/dao/IUserDao.java
/home/vojtech/workspace/java/test/morosystems/integration-task/src/main/java/cz/morosystems/schlemmer/Application.java
/home/vojtech/workspace/java/test/morosystems/integration-task/src/main/java/cz/morosystems/schlemmer/service/IUserService.java
/home/vojtech/workspace/java/test/morosystems/integration-task/src/main/java/cz/morosystems/schlemmer/entity/User.java
/home/vojtech/workspace/java/test/morosystems/integration-task/src/main/java/cz/morosystems/schlemmer/config/SecurityConfig.java
/home/vojtech/workspace/java/test/morosystems/integration-task/src/main/java/cz/morosystems/schlemmer/dao/UserDao.java
/home/vojtech/workspace/java/test/morosystems/integration-task/src/main/java/cz/morosystems/schlemmer/rest/ResponseBody.java
/home/vojtech/workspace/java/test/morosystems/integration-task/src/main/java/cz/morosystems/schlemmer/service/UserService.java
